{
  "count": 1302,
  "next": "https://pokeapi.co/api/v2/pokemon?offset=10&limit=10",
  "previous": null,
  "results": [
    {
      "name": "bulbasaur",
      "url": "https://pokeapi.co/api/v2/pokemon/1/"
    }
  ]
}
